{
  "images" : [
    {
      "idiom" : "universal",
      "scale" : "1x",
      "filename" : "help-2.png"
    },
    {
      "idiom" : "universal",
      "scale" : "2x",
      "filename" : "help-1.png"
    },
    {
      "idiom" : "universal",
      "scale" : "3x",
      "filename" : "help.png"
    }
  ],
  "info" : {
    "version" : 1,
    "author" : "xcode"
  }
}